,lon,lat,cluster
0,37.51700106712568,55.93441896513002,1
1,37.518345064051616,55.943832607979886,2
2,37.50599412558548,55.93411877016903,4
3,37.512471676917656,55.92573013456638,1
4,37.514501753792295,55.92576233829418,1
5,37.48663053207648,55.93824298186298,4
6,37.4892401371623,55.93235094325683,4
7,37.51477579470576,55.93217806731444,1
8,37.51091072412238,55.934749604601876,4
9,37.52577017055228,55.94368363057896,2
10,37.52110634329976,55.93275179878278,1
11,37.52203186959792,55.948143467392676,2
12,37.5083481773361,55.947487548657016,3
13,37.50932867741286,55.94914143330777,3
14,37.51670136961147,55.94699025054349,2
15,37.48856598678953,55.924321603884735,0
16,37.48675175571638,55.928086253337,0
17,37.4945014044915,55.94788984800694,3
18,37.52046206164596,55.93123003977227,1
19,37.49582083610162,55.93583650168751,4
20,37.51101610193557,55.9454812062398,3
21,37.51470179963262,55.946707123112624,3
22,37.49417874500055,55.94157976797326,4
23,37.51518591516629,55.922130675078996,1
24,37.51267949466699,55.92238113063303,1
25,37.484646745233036,55.93309499276731,0
26,37.512418110039114,55.93751062401065,1
27,37.50146892251955,55.921447258114014,4
28,37.49474312551038,55.947182718583164,3
29,37.4936707281016,55.93438224089179,4
30,37.52291205446904,55.9335906512621,1
31,37.49767224936118,55.938380325270046,4
32,37.52092790382052,55.930855973130306,1
33,37.48718564783952,55.938743698478845,4
34,37.520717277822484,55.947304211704655,2
35,37.50248867658619,55.933785113448806,4
36,37.52005981652139,55.94059832162614,2
37,37.48399012419149,55.9456084335012,3
38,37.506162046305995,55.93258575967425,4
39,37.526243560687305,55.93983268807321,2
40,37.52412352714063,55.94032936839679,2
41,37.51682232112521,55.93327281876856,1
42,37.496044913641114,55.947037982876616,3
43,37.514553379805115,55.939992209287624,1
44,37.52236805329631,55.9282128654583,1
45,37.50752497860433,55.94031921635885,3
46,37.48731647132081,55.921230806056734,0
47,37.50952793931406,55.945517875458975,3
48,37.50882814202044,55.93724934764978,1
49,37.51340080218074,55.92144941431414,1
50,37.49498991145248,55.9391438048063,4
51,37.50452152007475,55.94259149949743,3
52,37.48709262029317,55.944956052364084,3
53,37.51908268298392,55.93501075183566,1
54,37.50813789898993,55.927254020224325,1
55,37.49815999006644,55.93890559889956,4
56,37.52584090871301,55.92954233397176,2
57,37.518712185933786,55.93846747716477,1
58,37.49293131702502,55.93632918974387,4
59,37.48825660351546,55.93364490673527,4
60,37.522594786476965,55.92521923803852,1
61,37.52673798658506,55.94083509397134,2
62,37.501981497963186,55.9308648195498,4
63,37.49636283814132,55.932820993278035,4
64,37.52346116817067,55.93795798525982,2
65,37.51243949285693,55.93485377883168,1
66,37.52285051295299,55.922284386731945,1
67,37.50289385949822,55.94224460556824,3
68,37.52320493511633,55.9374186603162,2
69,37.483727734678155,55.945218818294535,3
70,37.484574646742324,55.92510623983492,0
71,37.49600583981158,55.94794625842493,3
72,37.49507673971603,55.92456507989637,4
73,37.52669237021187,55.9371686432743,2
74,37.49809418477285,55.94692488353891,3
75,37.506485047005135,55.924765985179995,4
76,37.516243212378235,55.93831036886727,1
77,37.48702821617764,55.92672768551315,0
78,37.48815053765978,55.94495800923192,4
79,37.50290824589976,55.930485421762945,4
80,37.4929935325864,55.92635301165468,4
81,37.50935016928148,55.92591267461809,1
82,37.488725764716996,55.936742962650484,4
83,37.51873463662654,55.92851631775523,1
84,37.51516129966536,55.92945660249723,1
85,37.49843223728418,55.9384164849911,4
86,37.50481194008491,55.93217175889957,1
87,37.495998171129386,55.935346765139045,4
88,37.49970109320465,55.937668185197204,4
89,37.52360433737857,55.94317285688442,2
90,37.50650275223124,55.93787847440369,1
91,37.4908487484459,55.92579558912338,4
92,37.49146321952557,55.94131656707827,4
93,37.51230603936298,55.929158899377605,1
94,37.493860961063454,55.9270663476742,4
95,37.483318776469936,55.92872941973695,0
96,37.51991953535105,55.947717129759354,2
97,37.50942070004529,55.94529910108431,3
98,37.50580175702171,55.949262960313476,3
99,37.49583149015929,55.94638326693606,3
